Stat 50 - Lab 2
…
What if we want a range of data values from 10 to 20? This is easy to do as well:

fresh_15_full$"SEX"[10:20] # displays all the entries in the 10th to 20th spots

##  [1] "F" "F" "M" "M" "F" "F" "F" "F" "M" "F" "M"

Again, you can check that this is correct by looking at the full data set above.

How to see data from different variables (columns)

What if we want to see what the second column of data is. We can use the command name_of_tabledata[,number]. The comma is not a typo! This will make more sense shortly.

fresh_15_full[,2] # displays (part of) 2nd column

## # A tibble: 67 x 1
##    `WT SEPT`
##        <dbl>
##  1        72
##  2        97
##  3        74
##  4        93
##  5        68
##  6        59
##  7        64
##  8        56
##  9        70
## 10        58
## # … with 57 more rows
…
